{"data":{"posts":{"totalCount":8,"pageInfo":{"totalPages":3,"currentPage":3},"edges":[{"node":{"id":"5b8e5b080b4dca0403f8d0e25284f15b","title":"Utiliser Docker derriere un proxy sur CoreOS","date":"July 5, 2015","summary":"Petit tips du jour qui pourra sauver l'après midi de certains...","timeToRead":1,"path":"/blog/2015-07-05-utiliser-docker-derriere-un-proxy-sur-core-os"}},{"node":{"id":"732a3474c1265df97e63c4ac5a7c85ac","title":"Bootstrapping a Twitch Extension with NextJS","date":"Invalid date","summary":"","timeToRead":3,"path":"/blog/2019-10-07-bootstrapping-twitch-ext-nextjs"}}]}},"context":{}}