{"data":{"posts":{"totalCount":5,"pageInfo":{"totalPages":2,"currentPage":2},"edges":[{"node":{"id":"c7cc1cee92002633964e992e8fbfef38","title":"Compiler ses applications Android avec Cordova en mode headless","date":"July 16, 2015","summary":"Retour d'expérience sur l'installation du SDK Android sur une Debian 64bits fraîchement installée.","timeToRead":4,"path":"/blog/2015-07-16-compiler-ses-applications-android-avec-cordova-en-mode-headless"}},{"node":{"id":"5b8e5b080b4dca0403f8d0e25284f15b","title":"Utiliser Docker derriere un proxy sur CoreOS","date":"July 5, 2015","summary":"Petit tips du jour qui pourra sauver l'après midi de certains...","timeToRead":1,"path":"/blog/2015-07-05-utiliser-docker-derriere-un-proxy-sur-core-os"}}]}},"context":{}}