{"data":{"posts":{"totalCount":7,"pageInfo":{"totalPages":3,"currentPage":1},"edges":[{"node":{"id":"99870c63c64b958622223f5433a42959","title":"Documenting your Flask-powered API like a boss","date":"November 27, 2017","summary":"How we built a solid documentation for our Flask-powered micro-services APIs.","timeToRead":4,"path":"/blog/2017-11-27-documenting-your-flask-powered-api-like-a-boss"}},{"node":{"id":"1eb0ac365876b23969595d3516fe4e7c","title":"Pipfile and Pipenv : the future of Python dependencies management","date":"November 7, 2017","summary":"How I learn to stop worrying and love pip (again)","timeToRead":3,"path":"/blog/2017-11-07-pipfile-and-pipenv-the-future-of-python-dependencies-management"}},{"node":{"id":"d54c0b3cb5ae7df38578a137c19dbd7e","title":"Distribuer un projet Python sur PyPI avec Travis-CI","date":"September 22, 2015","summary":"Vous avez toujours rêvé de distribuer votre lib Python sur PyPI sans jamais oser le faire ?","timeToRead":2,"path":"/blog/2015-09-22-distribuer-un-projet-python-sur-py-pi-avec-travis-ci"}}]}},"context":{}}