{"data":{"tag":{"title":"Python","belongsTo":{"totalCount":4,"pageInfo":{"totalPages":2,"currentPage":1},"edges":[{"node":{"title":"Documenting your Flask-powered API like a boss","timeToRead":4,"date":"November 27, 2017","path":"/blog/2017-11-27-documenting-your-flask-powered-api-like-a-boss","summary":"How we built a solid documentation for our Flask-powered micro-services APIs.","tags":[{"title":"Python"},{"title":"Flask"},{"title":"OpenAPI"},{"title":"Swagger"},{"title":"Documentation"}]}},{"node":{"title":"Pipfile and Pipenv : the future of Python dependencies management","timeToRead":3,"date":"November 7, 2017","path":"/blog/2017-11-07-pipfile-and-pipenv-the-future-of-python-dependencies-management","summary":"How I learn to stop worrying and love pip (again)","tags":[{"title":"Python"},{"title":"Pip"},{"title":"Pipenv"},{"title":"Packages Management"}]}},{"node":{"title":"Distribuer un projet Python sur PyPI avec Travis-CI","timeToRead":2,"date":"September 22, 2015","path":"/blog/2015-09-22-distribuer-un-projet-python-sur-py-pi-avec-travis-ci","summary":"Vous avez toujours rêvé de distribuer votre lib Python sur PyPI sans jamais oser le faire ?","tags":[{"title":"Python"},{"title":"Travis-CI"},{"title":"PyPI"},{"title":"Intégration Continue"},{"title":"Automation"}]}}]}}},"context":{}}