{"data":{"tag":{"title":"Python","belongsTo":{"totalCount":4,"pageInfo":{"totalPages":2,"currentPage":2},"edges":[{"node":{"title":"WhydToGo : vos playlists Whyd à emporter partout","timeToRead":3,"date":"August 28, 2015","path":"/blog/2015-08-28-whyd-to-go-vos-playlists-whyd-a-emporter-partout","summary":"Envie d'exporter ses belles playlists en dehors de Whyd ? Introducing \"WhydToGo\".","tags":[{"title":"Open-Source"},{"title":"Python"},{"title":"Musique"},{"title":"Whyd"},{"title":"Deezer"},{"title":"Heroku"}]}}]}}},"context":{}}