{"data":{"posts":{"totalCount":8,"pageInfo":{"totalPages":3,"currentPage":1},"edges":[{"node":{"id":"732a3474c1265df97e63c4ac5a7c85ac","title":"Bootstrapping a Twitch Extension with NextJS","date":"October 7, 2019","summary":"How to use NextJS to build Twitch extensions.","timeToRead":3,"path":"/blog/2019-10-07-bootstrapping-twitch-ext-nextjs"}},{"node":{"id":"99870c63c64b958622223f5433a42959","title":"Documenting your Flask-powered API like a boss","date":"November 27, 2017","summary":"How we built a solid documentation for our Flask-powered micro-services APIs.","timeToRead":4,"path":"/blog/2017-11-27-documenting-your-flask-powered-api-like-a-boss"}},{"node":{"id":"1eb0ac365876b23969595d3516fe4e7c","title":"Pipfile and Pipenv : the future of Python dependencies management","date":"November 7, 2017","summary":"How I learn to stop worrying and love pip (again)","timeToRead":3,"path":"/blog/2017-11-07-pipfile-and-pipenv-the-future-of-python-dependencies-management"}}]}},"context":{}}