{"data":{"posts":{"totalCount":5,"pageInfo":{"totalPages":2,"currentPage":1},"edges":[{"node":{"id":"d54c0b3cb5ae7df38578a137c19dbd7e","title":"Distribuer un projet Python sur PyPI avec Travis-CI","date":"September 22, 2015","summary":"Vous avez toujours rêvé de distribuer votre lib Python sur PyPI sans jamais oser le faire ?","timeToRead":2,"path":"/blog/2015-09-22-distribuer-un-projet-python-sur-py-pi-avec-travis-ci"}},{"node":{"id":"335e59a03e02c9d64175559064526d44","title":"WhydToGo : vos playlists Whyd à emporter partout","date":"August 28, 2015","summary":"Envie d'exporter ses belles playlists en dehors de Whyd ? Introducing \"WhydToGo\".","timeToRead":3,"path":"/blog/2015-08-28-whyd-to-go-vos-playlists-whyd-a-emporter-partout"}},{"node":{"id":"9f55065694be5769b33ab711bf6d608d","title":"Docker pour les développeurs: Environment as Code","date":"August 2, 2015","summary":"Envie d'exporter ses belles playlists en dehors de Whyd ? Introducing \"WhydToGo\".","timeToRead":4,"path":"/blog/2015-08-02-docker-pour-les-developpeurs-environment-as-code"}}]}},"context":{}}