{"data":{"posts":{"totalCount":7,"pageInfo":{"totalPages":3,"currentPage":2},"edges":[{"node":{"id":"335e59a03e02c9d64175559064526d44","title":"WhydToGo : vos playlists Whyd à emporter partout","date":"August 28, 2015","summary":"Envie d'exporter ses belles playlists en dehors de Whyd ? Introducing \"WhydToGo\".","timeToRead":3,"path":"/blog/2015-08-28-whyd-to-go-vos-playlists-whyd-a-emporter-partout"}},{"node":{"id":"9f55065694be5769b33ab711bf6d608d","title":"Docker pour les développeurs: Environment as Code","date":"August 2, 2015","summary":"Utiliser Docker comme un environnement de développement complet.","timeToRead":4,"path":"/blog/2015-08-02-docker-pour-les-developpeurs-environment-as-code"}},{"node":{"id":"c7cc1cee92002633964e992e8fbfef38","title":"Compiler ses applications Android avec Cordova en mode headless","date":"July 16, 2015","summary":"Retour d'expérience sur l'installation du SDK Android sur une Debian 64bits fraîchement installée.","timeToRead":4,"path":"/blog/2015-07-16-compiler-ses-applications-android-avec-cordova-en-mode-headless"}}]}},"context":{}}